<svg xmlns="http://www.w3.org/2000/svg" xmlns:xlink="http://www.w3.org/1999/xlink" xmlns:xodm="http://www.corel.com/coreldraw/odm/2003" xml:space="preserve" version="1.1" style="shape-rendering:geometricPrecision; text-rendering:geometricPrecision; image-rendering:optimizeQuality; fill-rule:evenodd; clip-rule:evenodd" viewBox="2993.33 7502.47 16000 16000">
 <defs>
  <style type="text/css">
   <![CDATA[
    .fil0 {fill:#1C3651}
    .fil1 {fill:#FEFEFE;fill-rule:nonzero}
   ]]>
  </style><style class="darkreader darkreader--sync" media="screen"/>
 </defs>
 <g id="Слой_x0020_1">
  <metadata id="CorelCorpID_0Corel-Layer"/>
  <g id="_3083605159984">
   <path class="fil0" d="M3067.17 11482.91c-0.37,-2093.77 1753.81,-3853.49 3883.1,-3907.19 1183.73,-46.52 2566.23,-73.25 4043.06,-73.25 1486.96,0 2878.3,27.09 4019.55,73.84 2127.32,-0.37 3906.98,1779.29 3906.35,3900.16 46.81,1137.65 74.1,2533.66 74.1,4026 0,1486.96 -27.09,2878.3 -73.84,4019.55 0.37,2127.32 -1779.29,3906.98 -3900.17,3906.35 -1137.64,46.81 -2533.65,74.1 -4025.99,74.1 -1486.96,0 -2878.3,-27.09 -4019.55,-73.84 -2127.32,0.37 -3906.98,-1779.29 -3906.35,-3900.17 -46.81,-1137.64 -74.1,-2533.65 -74.1,-4025.99 0,-1486.96 27.09,-2878.3 73.84,-4019.56z"/>
   <path class="fil1" d="M9065.85 16207.19l0.28 0.72c28.72,78.52 62.12,154.8 99.88,228.48l0.16 0.24c7.48,14.56 15.12,29 22.88,43.36l0.52 0.96c7.68,14.2 15.6,28.24 23.64,42.24l0.56 1c7.48,13 15.12,26 22.92,38.84l2 3.32 0.84 1.36c7.8,12.88 15.8,25.64 23.92,38.36l1.44 2.24 0.48 0.76c8.2,12.8 16.6,25.52 25.12,38.12l0.76 1.16 0.8 1.24 2.12 3.04c7.28,10.68 14.6,21.32 22.08,31.88l7.8 10.96c6.8,9.56 13.76,19 20.76,28.44l7.84 10.56c7.04,9.4 14.2,18.72 21.44,27.96l9.2 11.72 21.52 26.72 11.12 13.48 20.56 24.28 10.28 11.92c299.4,343.2 711.12,585.8 1177.84,670.52l9.56 1.72c14.24,2.48 28.56,4.84 42.88,7.08l6.76 1.04c15.48,2.36 30.96,4.52 46.56,6.52l1.48 0.2 0.16 0.04 1.48 0.16c16.16,2.04 32.4,3.96 48.68,5.6l1.4 0.12c68.96,7 138.92,10.6 209.76,10.6 70.32,0 139.8,-3.6 208.32,-10.48l1.44 -0.12 1.4 -0.16 0.04 0c14.68,-1.48 29.4,-3.16 44,-5l6.12 -0.72 0.16 -0.04 6.24 -0.84c12.56,-1.64 25,-3.36 37.44,-5.24l6.24 -0.92 4.88 -0.76 1.32 -0.2 6.2 -1 31.28 -5.2 16.92 -3.04c462,-84.68 869.84,-324 1167.96,-662.44l22.52 -26 2.24 -2.6 8.12 -9.64c8.12,-9.68 16.12,-19.4 24.04,-29.24l7.92 -9.84 21.28 -27.16 2.04 -2.64 7.68 -10.04 0.12 -0.16 15 -20.08 7.48 -10.16 7.44 -10.24 0.04 -0.08 14.76 -20.72 14.52 -21 11.52 -17 16.64 -25.28 6.48 -10.04 6.76 -10.72 14 -22.48 8.4 -13.84 17.72 -29.96 6.8 -11.84 17 -30.44 6.36 -11.64 17.52 -33.2 5.44 -10.6c6.04,-11.88 11.96,-23.76 17.76,-35.72l1.8 -3.68 1.04 -2.24c6.08,-12.68 12,-25.36 17.84,-38.16l3.8 -8.4c6,-13.44 12,-26.92 17.72,-40.52l0.68 -1.56 0.88 -2.12c5.72,-13.6 11.28,-27.24 16.72,-40.92l1.12 -2.84 0.2 -0.4 1.36 -3.56c5,-12.72 9.84,-25.52 14.6,-38.36l3.64 -10c4.68,-12.84 9.2,-25.64 13.6,-38.6l1.32 -3.76 0.6 -1.88c69.48,-206 107.2,-426.68 107.2,-656.16 0,-229.48 -37.64,-450.2 -107.2,-656.24l-0.08 0.04 -4 -11.68 -9.56 -27.2 -7.88 -21.48 -9.8 -25.72 -8.28 -21.04 -8.64 -21.12 -10.84 -25.64 -0.76 -1.84 -5.12 -11.72 -5.16 -11.68 -9.88 -21.76 -0.68 -1.52 -5.4 -11.56 -5.44 -11.52 -10.8 -22.32 -0.32 -0.64 -5.68 -11.4 -17.36 -33.96 -5.96 -11.28c-5.96,-11.24 -12,-22.4 -18.2,-33.48l-6.2 -11.08 -18.88 -32.8 -0.32 -0.52c-66.44,-112.8 -143.32,-218.72 -229.4,-316.4l0.08 -0.04c-291.24,-330.56 -687.16,-566.6 -1135.96,-656.24l0 0.08 -6.12 -1.2 -6.16 -1.2 -6.12 -1.2 -6.16 -1.16 -30.8 -5.52 -6.2 -1.04 -6.2 -1.04 -6.2 -1 -6.2 -1 -24.84 -3.8 -6.24 -0.88 -0.28 -0.04 -12.2 -1.72 -6.28 -0.84 -25.04 -3.2 -6.28 -0.76 -6.28 -0.72 -6.28 -0.72 -6.32 -0.72 -6.28 -0.68 -0.04 0 -12.6 -1.28 -6.32 -0.6 -34.52 -3.04 -9.88 -0.76 -6.36 -0.48c-12.96,-0.92 -25.92,-1.8 -38.96,-2.44l-6.92 -0.32c-14.56,-0.72 -29.12,-1.28 -43.76,-1.72l-5.16 -0.16 -1.28 0 -1.36 -0.04c-15.68,-0.32 -31.4,-0.56 -47.2,-0.6l-3.16 0 -3.08 0c-15.84,0.04 -31.56,0.24 -47.28,0.6l-1.32 0.04 -1.24 0 -5.2 0.16c-14.68,0.4 -29.28,1 -43.88,1.72l-6.64 0.32c-15.2,0.76 -30.4,1.76 -45.48,2.88l-3.68 0.24 -2.68 0.24 -0.36 0.04c-14.8,1.16 -29.56,2.48 -44.28,3.92l-12.24 1.28 -31.52 3.56 -6.28 0.76 -12.52 1.6 -6.28 0.84 -18.72 2.6 -6.24 0.88 -6.2 0.92 -18.64 2.88 -6.2 1 -12.4 2.04 -6.16 1.04 -6.2 1.08 -18.48 3.32 -6.16 1.12 -6.12 1.16 -6.16 1.2 -6.12 1.2 -6.12 1.2c-448.8,89.64 -844.76,325.64 -1136,656.24l-23 26.52 -1.76 2.08 -8.12 9.64 -24.04 29.24 -7.92 9.84 -18.44 23.44 -11.64 15.2 -17.6 23.48 -12.28 16.88 -15.72 22.08 -7.24 10.36 -7.16 10.4 -12.44 18.4 -17.04 25.92 -8.2 12.8 -17.4 27.88 -9.08 14.92 -17.12 28.92 -6.08 10.56c-6.56,11.44 -12.96,22.92 -19.28,34.48l-4.64 8.52c-6.48,11.96 -12.84,24 -19.08,36.08l-3.96 7.76c-6.32,12.4 -12.48,24.84 -18.56,37.4l-3.4 7.04c-6.04,12.64 -12,25.32 -17.8,38.08l-3.24 7.2c-6,13.36 -11.88,26.72 -17.6,40.24l-0.68 1.6 -0.28 0.64c-6.24,14.84 -12.36,29.76 -18.28,44.76l-0.16 0.4 -0.2 0.48 -0.44 1.12c-5.56,14.16 -10.96,28.44 -16.24,42.72l-1.16 3.04 -0.2 0.64 -0.76 2.04c-5.24,14.44 -10.4,28.88 -15.28,43.44l-0.44 1.28 -0.6 1.8c-69.52,206 -107.2,426.76 -107.2,656.24 0,247.56 43.84,484.92 124.2,704.72zm1927.48 -1945.96c685.52,0 1241.24,555.72 1241.24,1241.24 0,685.52 -555.72,1241.24 -1241.24,1241.24 -685.52,0 -1241.24,-555.72 -1241.24,-1241.24 0,-685.52 555.72,-1241.24 1241.24,-1241.24zm-3437.8 -1204.28l0.08 -0.16 894.32 93.56c467.44,-505.12 1083.44,-870.6 1778.64,-1027.2l365.84 -820.68 399.04 0 399.04 0 365.84 820.76c695.12,156.72 1311.16,522.28 1778.52,1027.4l894.08 -93.6 0.12 -0.08 0.04 0.04 0.08 0 399.04 691.16 -527.64 726.92c100.72,324.64 155.08,669.68 155.08,1027.44 0,357.88 -54.36,703 -155.16,1027.68l527.52 726.68 0.08 0.04 -0.04 0.04 0.04 0.04 -199.52 345.52 -199.52 345.56 0 0.08 -894.36 -93.6c-467.4,505.12 -1083.44,870.68 -1778.68,1027.32l-365.52 820.08 0 0.52 -0.24 0 -398.8 0 -399.04 0 -0.24 0 -365.84 -820.68c-695.24,-156.68 -1311.32,-522.28 -1778.68,-1027.48l-893.84 93.6 -0.28 0.16 -0.04 -0.12 -199.48 -345.48 -199.52 -345.56 -0.04 -0.12 527.56 -726.88c-100.76,-324.6 -155.08,-669.64 -155.08,-1027.4 0,-357.92 54.4,-703.08 155.24,-1027.8l-527.36 -726.4 -0.32 -0.2 0.08 -0.16 199.44 -345.44 199.52 -345.56z"/>
  </g>
 </g>
</svg>