<svg xmlns="http://www.w3.org/2000/svg" xmlns:xlink="http://www.w3.org/1999/xlink" xmlns:xodm="http://www.corel.com/coreldraw/odm/2003" xml:space="preserve" version="1.1" style="shape-rendering:geometricPrecision; text-rendering:geometricPrecision; image-rendering:optimizeQuality; fill-rule:evenodd; clip-rule:evenodd" viewBox="2993.33 7502.47 16000 16000">
 <defs>
  <style type="text/css">
   <![CDATA[
    .fil0 {fill:#1C3651}
    .fil1 {fill:#FEFEFE;fill-rule:nonzero}
   ]]>
  </style><style class="darkreader darkreader--sync" media="screen"/>
 </defs>
 <g id="Слой_x0020_1">
  <metadata id="CorelCorpID_0Corel-Layer"/>
  <g id="_3083536630624">
   <path class="fil0" d="M3067.17 11482.91c-0.37,-2093.77 1753.81,-3853.49 3883.1,-3907.19 1183.73,-46.52 2566.23,-73.25 4043.06,-73.25 1486.96,0 2878.3,27.09 4019.55,73.84 2127.32,-0.37 3906.98,1779.29 3906.35,3900.16 46.81,1137.65 74.1,2533.66 74.1,4026 0,1486.96 -27.09,2878.3 -73.84,4019.55 0.37,2127.32 -1779.29,3906.98 -3900.17,3906.35 -1137.64,46.81 -2533.65,74.1 -4025.99,74.1 -1486.96,0 -2878.3,-27.09 -4019.55,-73.84 -2127.32,0.37 -3906.98,-1779.29 -3906.35,-3900.17 -46.81,-1137.64 -74.1,-2533.65 -74.1,-4025.99 0,-1486.96 27.09,-2878.3 73.84,-4019.56z"/>
   <path class="fil1" d="M10550.97 15704.15c-130.96,-78.28 -236.84,-193.08 -304.24,-331.16 -78.24,-160.76 -99.48,-343.4 -60.2,-517.92 39.28,-174.32 136.76,-330.32 276.4,-441.88 139.64,-111.76 313.12,-172.64 491.88,-172.64 178.76,0 352.24,60.88 491.88,172.64 139.64,111.56 237.08,267.56 276.4,441.88 39.28,174.52 18,357.16 -60.24,517.92 -69,141.44 -178.4,258.44 -313.8,336.8l0 2918.08 -394.24 0 -403.84 0 0 -2923.72z"/>
   <path class="fil1" d="M12601.53 13381.03c421.4,421.4 682.12,1003.68 682.12,1646.72 0,643 -260.72,1225.32 -682.12,1646.72l-498.88 -498.88c293.72,-293.72 475.4,-699.6 475.4,-1147.84 0,-448.28 -181.68,-854.12 -475.4,-1147.84l498.88 -498.88zm-3293.44 3293.44c-421.4,-421.44 -682.12,-1003.72 -682.12,-1646.72 0,-643.04 260.76,-1225.32 682.12,-1646.72l498.88 498.88c-293.68,293.72 -475.4,699.56 -475.4,1147.84 0,448.24 181.72,854.12 475.4,1147.84l-498.88 498.88z"/>
   <path class="fil1" d="M8255.25 17607.31c-660.2,-660.16 -1068.56,-1572.24 -1068.56,-2579.56 0,-1007.32 408.36,-1919.4 1068.56,-2579.56l498.88 498.88c-532.44,532.4 -861.84,1268.12 -861.84,2080.68 0,812.56 329.4,1548.28 861.84,2080.68l-498.88 498.88z"/>
   <path class="fil1" d="M13654.37 12448.19c660.2,660.16 1068.56,1572.24 1068.56,2579.56 0,1007.32 -408.36,1919.4 -1068.56,2579.56l-498.88 -498.88c532.44,-532.4 861.84,-1268.12 861.84,-2080.68 0,-812.56 -329.4,-1548.28 -861.84,-2080.68l498.88 -498.88z"/>
  </g>
 </g>
</svg>