<?xml version="1.0" encoding="UTF-8"?>
<!DOCTYPE svg PUBLIC "-//W3C//DTD SVG 1.1//EN" "http://www.w3.org/Graphics/SVG/1.1/DTD/svg11.dtd">
<!-- Creator: CorelDRAW -->
<svg xmlns="http://www.w3.org/2000/svg" xml:space="preserve" width="310mm" height="220mm" version="1.1" style="shape-rendering:geometricPrecision; text-rendering:geometricPrecision; image-rendering:optimizeQuality; fill-rule:evenodd; clip-rule:evenodd"
viewBox="0 0 31000 22000"
 xmlns:xlink="http://www.w3.org/1999/xlink"
 xmlns:xodm="http://www.corel.com/coreldraw/odm/2003">
 <defs>
  <style type="text/css">
   <![CDATA[
    .fil0 {fill:#FEFEFE;fill-rule:nonzero}
   ]]>
  </style>
 </defs>
 <g id="Слой_x0020_1">
  <metadata id="CorelCorpID_0Corel-Layer"/>
  <g id="_2994786175824">
   <path class="fil0" d="M15485.08 5846.72c-520.06,-204.55 -1024.58,-233.68 -1464.46,-49.98 -522.47,218.23 -879.56,706.22 -1062.37,1362.53 -261.16,938.23 -166.54,2220.63 309.69,3552.41l201.45 3.91c-675.95,-2004.67 -454.04,-3360.23 -454.04,-3360.23 0,0 251.88,-2277.92 2469.73,-1508.64z"/>
   <path class="fil0" d="M19854.3 14897.94c-130.81,524.75 -435.68,1000.03 -974.29,1221.09 -868.59,314.59 -1818.8,-270.63 -1818.8,-270.63 0,0 -1506.19,-886.8 -2856.98,-3166.49 -80.87,-16.32 -237.43,-46.53 -237.43,-46.53 0,0 45.12,111.44 96.03,195.98 866.73,1554.54 2030.08,2706.18 3131.1,3206.93 707.34,321.8 1389.03,374.93 1949.82,93.42 168.05,-84.32 316.82,-199.08 448.96,-350.95 157.22,-180.82 458.78,-593.1 634.48,-877.97l-372.89 -4.85z"/>
   <path class="fil0" d="M20004.14 14900.25c-127.75,533.39 -433.6,1018.87 -979.67,1242.9 -868.52,314.42 -1818.75,-270.81 -1818.75,-270.81 0,0 -1506.18,-886.58 -2857,-3166.35 -80.83,-16.38 -237.39,-46.48 -237.39,-46.48 0,0 45.24,111.41 96.01,195.91 866.7,1554.47 2030.09,2706.26 3131.03,3207.06 707.37,321.74 1389.23,374.89 1949.97,93.38 167.95,-84.36 316.74,-199.11 448.83,-350.96 162.11,-186.47 477.73,-619.16 650.63,-904.3l-383.66 -0.35z"/>
   <path class="fil0" d="M6522.86 14547.24c38.82,-436.92 72.15,-970.71 99.97,-1601.6 27.94,-630.88 45.24,-1253.07 51.96,-1866.17 116.91,1.76 205.99,2.6 266.94,2.6l236.54 -2.6 -81.11 1609.46 -60.85 1517.95 482.58 2.54c359.09,0 611.8,-1.17 758.25,-3.71 146.35,-2.57 288.23,-8.19 425.42,-16.67 -10.1,107.62 -18.56,226.92 -25.41,358.2 -384.46,-3.32 -724.05,-5.1 -1018.75,-5.1l-1135.54 5.1z"/>
   <path class="fil0" d="M13280.51 14547.24l50.67 -683.32 58.22 -1262.67 25.29 -1061.87c3.46,-215.11 5.13,-368.35 5.13,-459.91 203.16,3.41 371.8,5.15 505.66,5.15 115.15,0 242.61,-1.74 382.44,-5.15 139.7,-3.34 254.46,-5.06 344.25,-5.06 157.48,0 301.06,11.03 430.61,33.06 129.58,22 245.64,72.58 348.21,151.32 102.41,78.81 177.79,170.17 226,274.3 48.27,104.15 72.51,222.22 72.51,354.34 0,127.01 -19.01,244.69 -57.17,353.1 -38.07,108.36 -93.94,206.56 -167.63,294.68 -73.62,88.08 -161.18,160 -262.77,215.89 -77.85,42.35 -175.25,77.17 -292.14,104.13 -77.85,17.02 -180.84,42.48 -320,48.4 -139.04,5.78 -477.6,-55.91 -477.6,-55.91 -23.78,-37.36 -62.87,-102.45 -117.15,-195.67 130.38,23.79 245.56,35.61 345.55,35.61 169.27,0 322.98,-27.9 460.99,-83.84 138.11,-55.93 244.82,-142.49 320.1,-260.24 75.38,-117.72 113.07,-248.67 113.07,-392.72 0,-77.78 -11.83,-150.03 -35.48,-217.04 -23.8,-66.9 -61.46,-123.33 -113.07,-169.04 -51.77,-45.75 -102.56,-78.73 -152.55,-99.09 -49.85,-20.39 -114.21,-35.56 -192.94,-45.79 -78.8,-10.05 -162.31,-15.13 -250.3,-15.13l-360.7 5.08c-155.88,0 -254.91,-0.97 -297.26,-2.54 -52.29,1138.05 -84.29,2184.77 -96.15,3139.93l-249.12 -5.1c-37.33,0 -119.57,1.78 -246.67,5.1z"/>
   <path class="fil0" d="M16227.44 14547.24l63.87 -955.16 71.57 -1785.94 7.8 -388.77c1.64,-98.29 2.45,-210.89 2.45,-337.9 382.58,1.76 774.59,2.6 1175.63,2.6l810.25 -2.6 259.11 0c-11.86,117.79 -19.51,236.35 -22.83,355.78l-226.23 -12.8c-55.89,-3.35 -152.11,-5.87 -288.39,-7.63 -136.38,-1.64 -271.28,-2.44 -405.11,-2.44 -399.69,0 -678.39,2.44 -835.85,7.52l-46.05 1189.02c260.82,5.09 494.62,7.57 701.34,7.57 225.17,0 520.71,-3.34 886.84,-10.1 -11.83,118.5 -19.48,235.43 -22.83,350.62l-874.25 -7.72c-171.28,0 -409.27,3.43 -714.17,10.25l-46.16 1254.9 264.39 2.54c479.61,0 797.72,-1.68 954.37,-4.98 156.61,-3.5 340.07,-11.06 550.46,-22.96 -11.93,125.32 -19.46,244.76 -22.96,358.2 -408.14,-3.32 -752.81,-5.1 -1033.91,-5.1l-1209.34 5.1z"/>
   <path class="fil0" d="M19878.17 14547.24l50.66 -777.37 68.57 -1610.6 22.74 -744.45c-414.62,1.76 -777.64,9.36 -1089.05,22.95 10.18,-135.55 16.13,-254.95 17.87,-358.3 430.04,1.76 893.95,2.6 1391.85,2.6l812.76 -2.6 431.83 0c-11.85,150.27 -17.77,269.58 -17.77,358.3 -262.59,-15.32 -553.02,-22.95 -871.49,-22.95l-208.3 0 -52.96 1124.62 -53.16 1584.02 0 423.78 -244.15 -5.1c-21.99,0 -108.52,1.78 -259.4,5.1z"/>
   <path class="fil0" d="M22591.4 14547.24l50.65 -777.37 68.53 -1610.6 22.77 -744.45c-414.61,1.76 -777.65,9.36 -1089.03,22.95 10.18,-135.55 16.1,-254.95 17.84,-358.3 430.08,1.76 893.94,2.6 1391.87,2.6l812.78 -2.6 431.77 0c-11.81,150.27 -17.74,269.58 -17.74,358.3 -262.57,-15.32 -552.99,-22.95 -871.46,-22.95l-208.29 0 -52.99 1124.62 -53.14 1584.02 0 423.78 -244.14 -5.1c-22.06,0 -108.55,1.78 -259.42,5.1z"/>
   <path class="fil0" d="M12668.37 12865.47c0,1042.65 -845.26,1887.87 -1887.92,1887.87 -1042.59,0 -1887.87,-845.22 -1887.87,-1887.87 0,-1042.65 845.28,-1887.95 1887.87,-1887.95 1042.66,0 1887.92,845.3 1887.92,1887.95z"/>
   <polygon class="fil0" points="19319.59,7892.44 19538.09,7892.44 19538.09,8037.15 19319.59,8037.15 19319.59,8333.76 19594.5,8333.76 19594.5,8478.46 19160.43,8478.46 19160.43,7465.6 19594.5,7465.6 19594.5,7610.28 19319.59,7610.28 "/>
   <polygon class="fil0" points="19805.77,7744.86 19805.77,8478.46 19662.52,8478.46 19662.52,7465.6 19862.21,7465.6 20025.69,8071.87 20025.69,7465.6 20167.51,7465.6 20167.51,8478.46 20004.01,8478.46 "/>
   <path class="fil0" d="M20490.17 7915.59l222.85 0 0 321.22c0,81.99 -20.03,144.71 -60.07,188.12 -40.03,43.39 -99.09,65.1 -177.25,65.1 -78.12,0 -137.22,-21.93 -177.25,-65.83 -40.02,-43.89 -60.05,-106.85 -60.05,-188.81l0 -526.72c0,-81.97 20.03,-144.93 60.05,-188.82 40.03,-43.9 99.13,-65.84 177.25,-65.84 78.16,0 137.22,21.94 177.25,65.84 40.04,43.89 60.07,106.85 60.07,188.82l0 98.4 -150.5 0 0 -108.51c0,-36.67 -7.47,-62.46 -22.43,-77.41 -14.94,-14.96 -34.96,-22.44 -60.03,-22.44 -25.09,0 -45.11,7.48 -60.05,22.44 -14.94,14.95 -22.43,41 -22.43,77.64l0 547.92c0,36.65 7.49,62.46 22.43,76.93 14.94,14.46 34.96,21.71 60.05,21.71 25.07,0 45.09,-7.25 60.03,-21.71 14.96,-14.47 22.43,-40.03 22.43,-76.69l0 -186.66 -72.35 0 0 -144.7z"/>
   <polygon class="fil0" points="20783.93,7465.6 20943.09,7465.6 20943.09,8478.46 20783.93,8478.46 "/>
   <polygon class="fil0" points="21163.01,7744.86 21163.01,8478.46 21019.77,8478.46 21019.77,7465.6 21219.45,7465.6 21382.95,8071.87 21382.95,7465.6 21524.76,7465.6 21524.76,8478.46 21361.25,8478.46 "/>
   <polygon class="fil0" points="21759.17,7892.44 21977.66,7892.44 21977.66,8037.15 21759.17,8037.15 21759.17,8333.76 22034.08,8333.76 22034.08,8478.46 21600,8478.46 21600,7465.6 22034.08,7465.6 22034.08,7610.28 21759.17,7610.28 "/>
   <polygon class="fil0" points="22262.71,7892.44 22481.19,7892.44 22481.19,8037.15 22262.71,8037.15 22262.71,8333.76 22537.61,8333.76 22537.61,8478.46 22103.54,8478.46 22103.54,7465.6 22537.61,7465.6 22537.61,7610.28 22262.71,7610.28 "/>
   <path class="fil0" d="M22938.41 8478.46c-1.92,-6.75 -3.84,-13.02 -5.77,-18.81 -1.94,-5.79 -3.62,-13.02 -5.07,-21.71 -1.45,-8.67 -2.4,-19.77 -2.9,-33.28 -0.47,-13.51 -0.73,-30.39 -0.73,-50.64l0 -159.17c0,-47.26 -8.2,-80.53 -24.59,-99.83 -16.39,-19.31 -42.93,-28.95 -79.59,-28.95l-54.98 0 0 412.39 -159.16 0 0 -1012.86 240.2 0c82.94,0 142.99,19.28 180.13,57.87 37.14,38.58 55.71,96.95 55.71,175.09l0 79.57c0,104.17 -34.72,172.67 -104.17,205.46 40.51,16.42 68.24,43.17 83.2,80.31 14.94,37.14 22.43,82.24 22.43,135.29l0 156.27c0,25.08 0.96,47.04 2.88,65.85 1.94,18.81 6.75,37.85 14.48,57.15l-162.07 0zm-173.63 -868.18l0 311.11 62.23 0c29.91,0 53.3,-7.72 70.16,-23.16 16.9,-15.42 25.33,-43.4 25.33,-83.92l0 -99.85c0,-36.65 -6.5,-63.18 -19.52,-79.57 -13.04,-16.4 -33.54,-24.61 -61.52,-24.61l-76.68 0z"/>
   <polygon class="fil0" points="23167.05,7465.6 23326.21,7465.6 23326.21,8478.46 23167.05,8478.46 "/>
   <polygon class="fil0" points="23546.13,7744.86 23546.13,8478.46 23402.89,8478.46 23402.89,7465.6 23602.57,7465.6 23766.07,8071.87 23766.07,7465.6 23907.88,7465.6 23907.88,8478.46 23744.38,8478.46 "/>
   <path class="fil0" d="M24230.55 7915.59l222.84 0 0 321.22c0,81.99 -20.02,144.71 -60.05,188.12 -40.03,43.39 -99.11,65.1 -177.26,65.1 -78.14,0 -137.22,-21.93 -177.25,-65.83 -40.03,-43.89 -60.04,-106.85 -60.04,-188.81l0 -526.72c0,-81.97 20.01,-144.93 60.04,-188.82 40.03,-43.9 99.11,-65.84 177.25,-65.84 78.15,0 137.23,21.94 177.26,65.84 40.03,43.89 60.05,106.85 60.05,188.82l0 98.4 -150.5 0 0 -108.51c0,-36.67 -7.47,-62.46 -22.41,-77.41 -14.97,-14.96 -34.98,-22.44 -60.05,-22.44 -25.09,0 -45.11,7.48 -60.05,22.44 -14.94,14.95 -22.44,41 -22.44,77.64l0 547.92c0,36.65 7.5,62.46 22.44,76.93 14.94,14.46 34.96,21.71 60.05,21.71 25.07,0 45.08,-7.25 60.05,-21.71 14.94,-14.47 22.41,-40.03 22.41,-76.69l0 -186.66 -72.34 0 0 -144.7z"/>
   <path class="fil0" d="M20932.95 9682.32l0 134.55c0,82.01 -20,144.71 -60.03,188.13 -40.04,43.41 -99.13,65.11 -177.26,65.11 -78.14,0 -137.22,-21.95 -177.25,-65.84 -40.05,-43.9 -60.07,-106.84 -60.07,-188.82l0 -526.71c0,-81.98 20.02,-144.92 60.07,-188.81 40.03,-43.9 99.11,-65.83 177.25,-65.83 78.13,0 137.22,21.93 177.26,65.83 40.03,43.89 60.03,106.83 60.03,188.81l0 98.39 -150.48 0 0 -108.51c0,-36.65 -7.47,-62.46 -22.42,-77.41 -14.96,-14.94 -34.98,-22.43 -60.05,-22.43 -25.09,0 -45.1,7.49 -60.04,22.43 -14.97,14.95 -22.44,41 -22.44,77.65l0 547.91c0,36.67 7.47,62.47 22.44,76.94 14.94,14.45 34.95,21.7 60.04,21.7 25.07,0 45.09,-7.25 60.05,-21.7 14.95,-14.47 22.42,-40.04 22.42,-76.69l0 -144.7 150.48 0z"/>
   <path class="fil0" d="M21154.33 9825.56c0,36.67 7.48,62.47 22.44,77.42 14.94,14.97 34.96,22.43 60.05,22.43 25.07,0 45.1,-7.46 60.05,-22.43 14.96,-14.95 22.43,-40.75 22.43,-77.42l0 -546.94c0,-36.65 -7.47,-62.46 -22.43,-77.41 -14.95,-14.94 -34.98,-22.43 -60.05,-22.43 -25.09,0 -45.11,7.49 -60.05,22.43 -14.96,14.95 -22.44,40.76 -22.44,77.41l0 546.94zm-159.16 -536.82c0,-81.98 20.75,-144.92 62.23,-188.81 41.48,-43.9 101.28,-65.83 179.42,-65.83 78.14,0 137.93,21.93 179.41,65.83 41.48,43.89 62.23,106.83 62.23,188.81l0 526.71c0,81.98 -20.75,144.92 -62.23,188.82 -41.48,43.89 -101.27,65.84 -179.41,65.84 -78.14,0 -137.94,-21.95 -179.42,-65.84 -41.48,-43.9 -62.23,-106.84 -62.23,-188.82l0 -526.71z"/>
   <polygon class="fil0" points="21887.96,9764.79 21996.46,9045.66 22217.86,9045.66 22217.86,10058.53 22067.37,10058.53 22067.37,9332.15 21957.4,10058.53 21806.91,10058.53 21688.27,9342.29 21688.27,10058.53 21549.35,10058.53 21549.35,9045.66 21770.74,9045.66 "/>
   <path class="fil0" d="M22526.04 9045.66c80.06,0 139.63,21.23 178.7,63.67 39.08,42.45 58.6,104.65 58.6,186.65l0 131.69c0,81.98 -19.52,144.2 -58.6,186.65 -39.07,42.45 -98.64,63.67 -178.7,63.67l-75.23 0 0 380.54 -159.18 0 0 -1012.87 234.41 0zm-75.23 144.71l0 342.91 75.23 0c25.08,0 44.37,-6.75 57.89,-20.25 13.49,-13.5 20.25,-38.59 20.25,-75.24l0 -151.95c0,-36.63 -6.76,-61.72 -20.25,-75.23 -13.52,-13.51 -32.81,-20.24 -57.89,-20.24l-75.23 0z"/>
   <path class="fil0" d="M23295.83 10058.53l-160.62 0 -27.49 -183.76 -195.35 0 -27.48 183.76 -146.14 0 162.05 -1012.87 232.96 0 162.07 1012.87zm-363.19 -321.22l153.36 0 -76.68 -512.22 -76.68 512.22z"/>
   <polygon class="fil0" points="23496.94,9324.93 23496.94,10058.53 23353.7,10058.53 23353.7,9045.66 23553.37,9045.66 23716.87,9651.93 23716.87,9045.66 23858.69,9045.66 23858.69,10058.53 23695.17,10058.53 "/>
   <polygon class="fil0" points="24111.9,9722.83 23910.77,9045.66 24077.18,9045.66 24198.72,9507.23 24320.27,9045.66 24472.19,9045.66 24271.06,9722.83 24271.06,10058.53 24111.9,10058.53 "/>
  </g>
 </g>
</svg>
